{
        "page": 1,
        "pages": 34,
        "perpage": 30,
        "total": 1000,
        "photo": [
        {
        "id": "28035115977",
        "owner": "149845690@N07",
        "secret": "3ac90f551c",
        "server": "876",
        "farm": 1,
        "title": "WQ7D5.jpg",
        "ispublic": 1,
        "isfriend": 0,
        "isfamily": 0
        },
        {
        "id": "28035124107",
        "owner": "27498201@N07",
        "secret": "f0a4546517",
        "server": "1827",
        "farm": 2,
        "title": "67 - 36 pkt Atlas fett",
        "ispublic": 1,
        "isfriend": 0,
        "isfamily": 0
        },
        {
        "id": "28035125937",
        "owner": "10194419@N00",
        "secret": "9a57e3a7b3",
        "server": "1766",
        "farm": 2,
        "title": "OldenCam",
        "ispublic": 1,
        "isfriend": 0,
        "isfamily": 0
        },
        {
        "id": "28035128557",
        "owner": "153352704@N05",
        "secret": "212d568a32",
        "server": "895",
        "farm": 1,
        "title": "Graphic Design Inspiration : Elevarte Branding by Firebelly",
        "ispublic": 1,
        "isfriend": 0,
        "isfamily": 0
        },
        {
        "id": "28035130007",
        "owner": "162012696@N06",
        "secret": "34ec0d5916",
        "server": "1802",
        "farm": 2,
        "title": "Eric Omondi's brother dies of cocaine addiction https://t.co/7RPhyUWZop",
        "ispublic": 1,
        "isfriend": 0,
        "isfamily": 0
        },
        {
        "id": "29031451378",
        "owner": "57729348@N02",
        "secret": "0527c4639a",
        "server": "1821",
        "farm": 2,
        "title": "Humpback Whale",
        "ispublic": 1,
        "isfriend": 0,
        "isfamily": 0
        },
        {
        "id": "29031456338",
        "owner": "156095603@N06",
        "secret": "5a1351a953",
        "server": "1762",
        "farm": 2,
        "title": "2018-06-19_03-08-47",
        "ispublic": 1,
        "isfriend": 0,
        "isfamily": 0
        },
        {
        "id": "29031462488",
        "owner": "95418048@N02",
        "secret": "c91b83a493",
        "server": "900",
        "farm": 1,
        "title": "In partnership with Bed, Bath & Beyond, we’re happy to announce that we’re able to #furnishthefuture for 30 young women from YPIE & the Guidance Center of Westchester.",
        "ispublic": 1,
        "isfriend": 0,
        "isfamily": 0
        },
        {
        "id": "29031469268",
        "owner": "142969344@N05",
        "secret": "75606b2a6d",
        "server": "876",
        "farm": 1,
        "title": "",
        "ispublic": 1,
        "isfriend": 0,
        "isfamily": 0
        },
        {
        "id": "41093509580",
        "owner": "161230477@N06",
        "secret": "e0e38b2773",
        "server": "1805",
        "farm": 2,
        "title": "Schoolreis",
        "ispublic": 1,
        "isfriend": 0,
        "isfamily": 0
        },
        {
        "id": "41093512760",
        "owner": "54096961@N08",
        "secret": "2102f66604",
        "server": "1829",
        "farm": 2,
        "title": "Some dolls got new bodies during my lunch break",
        "ispublic": 1,
        "isfriend": 0,
        "isfamily": 0
        },
        {
        "id": "41093522260",
        "owner": "158327695@N03",
        "secret": "372acbd485",
        "server": "1829",
        "farm": 2,
        "title": "Yoga Poses : Fairy Yoga ideas for kids | Kids Yoga Stories",
        "ispublic": 1,
        "isfriend": 0,
        "isfamily": 0
        },
        {
        "id": "42003159785",
        "owner": "154909693@N08",
        "secret": "bf9c5f3f47",
        "server": "1761",
        "farm": 2,
        "title": "Extra vacation pics",
        "ispublic": 1,
        "isfriend": 0,
        "isfamily": 0
        },
        {
        "id": "42003161245",
        "owner": "50722916@N06",
        "secret": "868c9efba0",
        "server": "879",
        "farm": 1,
        "title": "Milky Way at Shiprock, NM",
        "ispublic": 1,
        "isfriend": 0,
        "isfamily": 0
        },
        {
        "id": "42003170875",
        "owner": "138516543@N06",
        "secret": "d75cacb70e",
        "server": "1823",
        "farm": 2,
        "title": "Three Large (1/2\" to 2\") Black/Purple Mystery Snails www.yourgiftlists.com/",
        "ispublic": 1,
        "isfriend": 0,
        "isfamily": 0
        },
        {
        "id": "42185470244",
        "owner": "144429258@N06",
        "secret": "df49e8da31",
        "server": "1823",
        "farm": 2,
        "title": "2018-06-19_18.04.15.UTC.jpg",
        "ispublic": 1,
        "isfriend": 0,
        "isfamily": 0
        },
        {
        "id": "42185487404",
        "owner": "155721725@N07",
        "secret": "87a02a602f",
        "server": "888",
        "farm": 1,
        "title": "",
        "ispublic": 1,
        "isfriend": 0,
        "isfamily": 0
        },
        {
        "id": "42185498594",
        "owner": "54324095@N00",
        "secret": "46d15beaa6",
        "server": "884",
        "farm": 1,
        "title": "",
        "ispublic": 1,
        "isfriend": 0,
        "isfamily": 0
        },
        {
        "id": "42185500504",
        "owner": "84278994@N05",
        "secret": "9b77d98c17",
        "server": "1787",
        "farm": 2,
        "title": "",
        "ispublic": 1,
        "isfriend": 0,
        "isfamily": 0
        },
        {
        "id": "42185501884",
        "owner": "154571483@N02",
        "secret": "e4ddb54c2a",
        "server": "1808",
        "farm": 2,
        "title": "",
        "ispublic": 1,
        "isfriend": 0,
        "isfamily": 0
        },
        {
        "id": "42185502284",
        "owner": "132351833@N08",
        "secret": "21eeeb8b85",
        "server": "892",
        "farm": 1,
        "title": "",
        "ispublic": 1,
        "isfriend": 0,
        "isfamily": 0
        },
        {
        "id": "42185502294",
        "owner": "163962635@N07",
        "secret": "186e68cfd9",
        "server": "1804",
        "farm": 2,
        "title": "",
        "ispublic": 1,
        "isfriend": 0,
        "isfamily": 0
        },
        {
        "id": "42185502354",
        "owner": "132214437@N03",
        "secret": "ef2ea1f05a",
        "server": "1810",
        "farm": 2,
        "title": "",
        "ispublic": 1,
        "isfriend": 0,
        "isfamily": 0
        },
        {
        "id": "42185507294",
        "owner": "68493793@N07",
        "secret": "f477e2b8b5",
        "server": "884",
        "farm": 1,
        "title": "Pennine Way",
        "ispublic": 1,
        "isfriend": 0,
        "isfamily": 0
        },
        {
        "id": "42185507494",
        "owner": "97225337@N03",
        "secret": "a560a0f668",
        "server": "1830",
        "farm": 2,
        "title": "",
        "ispublic": 1,
        "isfriend": 0,
        "isfamily": 0
        },
        {
        "id": "42185511684",
        "owner": "140823287@N02",
        "secret": "4a208533c5",
        "server": "1737",
        "farm": 2,
        "title": "images__19_",
        "ispublic": 1,
        "isfriend": 0,
        "isfamily": 0
        },
        {
        "id": "42855555072",
        "owner": "162592072@N02",
        "secret": "64fac78b82",
        "server": "1785",
        "farm": 2,
        "title": "",
        "ispublic": 1,
        "isfriend": 0,
        "isfamily": 0
        },
        {
        "id": "42855572202",
        "owner": "68186028@N08",
        "secret": "f2ec07dd13",
        "server": "896",
        "farm": 1,
        "title": "Power Rangers Dino Super Charge Villains Vivizord Sting Rage Fury Sledge New #eBayUS #PowerRangers",
        "ispublic": 1,
        "isfriend": 0,
        "isfamily": 0
        },
        {
        "id": "42903658651",
        "owner": "141011359@N06",
        "secret": "345c294cfd",
        "server": "1789",
        "farm": 2,
        "title": "",
        "ispublic": 1,
        "isfriend": 0,
        "isfamily": 0
        },
        {
        "id": "42903659011",
        "owner": "148508762@N02",
        "secret": "f4d01c5c34",
        "server": "1804",
        "farm": 2,
        "title": "ae03d5c8-64d2-4754-88ce-e7021174529e",
        "ispublic": 1,
        "isfriend": 0,
        "isfamily": 0
        }
        ]
}
